-------------------------------------------------------------------------------
Test set: ru.nsu.fit.endpoint.service.databse.data.SubscriptionTest
-------------------------------------------------------------------------------
Tests run: 19, Failures: 0, Errors: 0, Skipped: 0, Time elapsed: 0.113 sec
